﻿Build started 11.04.2015 13:44:19.
     1>Project "C:\Users\Andrew_975\Google Диск\@4term\OS\_4term\Lab4\Lab4\Lab4\Lab4.vcxproj" on node 2 (Build target(s)).
     1>ClCompile:
         C:\Program Files (x86)\Microsoft Visual Studio 11.0\VC\bin\CL.exe /c /ZI /nologo /W3 /WX- /sdl /Od /Oy- /D WIN32 /D _DEBUG /D _CONSOLE /D _CRT_SECURE_NO_WARNINGS /D _UNICODE /D UNICODE /Gm /EHsc /RTC1 /MDd /GS /fp:precise /Zc:wchar_t /Zc:forScope /Yu"stdafx.h" /Fp"Debug\Lab4.pch" /Fo"Debug\\" /Fd"Debug\vc110.pdb" /Gd /TP /analyze- /errorReport:prompt Lab4.cpp
         Lab4.cpp
     1>c:\users\andrew_975\google диск\@4term\os\_4term\lab4\lab4\lab4\lab4.cpp(29): warning C4101: 'bMem' : unreferenced local variable
     1>c:\users\andrew_975\google диск\@4term\os\_4term\lab4\lab4\lab4\lab4.cpp(102): warning C4101: 'dwCount' : unreferenced local variable
     1>c:\users\andrew_975\google диск\@4term\os\_4term\lab4\lab4\lab4\lab4.cpp(237): warning C4172: returning address of local variable or temporary
     1>c:\users\andrew_975\google диск\@4term\os\_4term\lab4\lab4\lab4\lab4.cpp(256): warning C4101: 'dwCount' : unreferenced local variable
     1>c:\users\andrew_975\google диск\@4term\os\_4term\lab4\lab4\lab4\lab4.cpp(427): warning C4172: returning address of local variable or temporary
     1>c:\users\andrew_975\google диск\@4term\os\_4term\lab4\lab4\lab4\lab4.cpp(447): warning C4101: 'dwCount' : unreferenced local variable
     1>c:\users\andrew_975\google диск\@4term\os\_4term\lab4\lab4\lab4\lab4.cpp(506): warning C4101: 'dwCount' : unreferenced local variable
     1>c:\users\andrew_975\google диск\@4term\os\_4term\lab4\lab4\lab4\lab4.cpp(555): warning C4101: 'dwCount' : unreferenced local variable
     1>c:\users\andrew_975\google диск\@4term\os\_4term\lab4\lab4\lab4\lab4.cpp(606): warning C4800: 'BOOL' : forcing value to bool 'true' or 'false' (performance warning)
     1>c:\users\andrew_975\google диск\@4term\os\_4term\lab4\lab4\lab4\lab4.cpp(642): warning C4800: 'BOOL' : forcing value to bool 'true' or 'false' (performance warning)
     1>c:\users\andrew_975\google диск\@4term\os\_4term\lab4\lab4\lab4\lab4.cpp(662): warning C4800: 'BOOL' : forcing value to bool 'true' or 'false' (performance warning)
     1>c:\users\andrew_975\google диск\@4term\os\_4term\lab4\lab4\lab4\lab4.cpp(729): warning C4101: 'letter' : unreferenced local variable
       Link:
         C:\Program Files (x86)\Microsoft Visual Studio 11.0\VC\bin\link.exe /ERRORREPORT:PROMPT /OUT:"C:\Users\Andrew_975\Google Диск\@4term\OS\_4term\Lab4\Lab4\Debug\Lab4.exe" /INCREMENTAL /NOLOGO kernel32.lib user32.lib gdi32.lib winspool.lib comdlg32.lib advapi32.lib shell32.lib ole32.lib oleaut32.lib uuid.lib odbc32.lib odbccp32.lib /MANIFEST /MANIFESTUAC:"level='asInvoker' uiAccess='false'" /manifest:embed /DEBUG /PDB:"C:\Users\Andrew_975\Google Диск\@4term\OS\_4term\Lab4\Lab4\Debug\Lab4.pdb" /SUBSYSTEM:CONSOLE /TLBID:1 /DYNAMICBASE /NXCOMPAT /IMPLIB:"C:\Users\Andrew_975\Google Диск\@4term\OS\_4term\Lab4\Lab4\Debug\Lab4.lib" /MACHINE:X86 Debug\CommonFile.obj
         Debug\Lab4.obj
         Debug\stdafx.obj
         Lab4.vcxproj -> C:\Users\Andrew_975\Google Диск\@4term\OS\_4term\Lab4\Lab4\Debug\Lab4.exe
     1>Done Building Project "C:\Users\Andrew_975\Google Диск\@4term\OS\_4term\Lab4\Lab4\Lab4\Lab4.vcxproj" (Build target(s)).

Build succeeded.

Time Elapsed 00:00:03.13
